{"title":"Spring REST Docs Sample","baseUri":"http://localhost:8080/","protocols":["HTTP"],"resources":[{"methods":[{"responses":[{"code":"201","body":[{"name":"application/hal+json","displayName":"application/hal+json","typePropertyKind":"TYPE_EXPRESSION","type":"any","examples":["{\n  \"total\" : 0,\n  \"products\" : [ ],\n  \"_links\" : {\n    \"self\" : {\n      \"href\" : \"http://localhost:8080/carts/4\"\n    },\n    \"order\" : {\n      \"href\" : \"http://localhost:8080/carts/4/order\"\n    }\n  }\n}"],"key":"application/hal+json"}],"key":"201"}],"protocols":["HTTP"],"description":"Create a cart","method":"post","allUriParameters":[],"absoluteUri":"http://localhost:8080/carts","relativeUri":"/carts","baseUri":"http://localhost:8080/"}],"relativeUri":"/carts","displayName":"/carts","resources":[{"methods":[{"responses":[{"code":"200","body":[{"name":"application/hal+json","displayName":"application/hal+json","typePropertyKind":"JSON","schemaPath":"cart-get-schema-response.json","type":"{\n  \"type\" : \"object\",\n  \"properties\" : {\n    \"total\" : {\n      \"description\" : \"Total amount of the cart.\",\n      \"type\" : \"number\"\n    },\n    \"_links\" : {\n      \"description\" : \"Links section.\",\n      \"type\" : \"object\",\n      \"properties\" : {\n        \"order\" : {\n          \"description\" : \"Link to order the cart.\",\n          \"type\" : \"null\"\n        }\n      }\n    },\n    \"products\" : {\n      \"description\" : \"The product line item of the cart.\",\n      \"type\" : \"array\",\n      \"items\" : {\n        \"type\" : \"object\",\n        \"properties\" : {\n          \"product\" : {\n            \"description\" : \"The product the line item relates to.\",\n            \"type\" : \"object\"\n          },\n          \"quantity\" : {\n            \"description\" : \"The quantity of the line item.\",\n            \"type\" : \"number\"\n          },\n          \"_links\" : {\n            \"type\" : \"object\",\n            \"properties\" : {\n              \"product\" : {\n                \"description\" : \"Link to the product.\",\n                \"type\" : \"object\"\n              }\n            }\n          }\n        }\n      }\n    }\n  }\n}","examples":["{\n  \"total\" : 49.99,\n  \"products\" : [ {\n    \"quantity\" : 1,\n    \"product\" : {\n      \"name\" : \"Fancy pants\",\n      \"price\" : 49.99\n    },\n    \"_links\" : {\n      \"product\" : {\n        \"href\" : \"http://localhost:8080/products/2\"\n      }\n    }\n  } ],\n  \"_links\" : {\n    \"self\" : {\n      \"href\" : \"http://localhost:8080/carts/2\"\n    },\n    \"order\" : {\n      \"href\" : \"http://localhost:8080/carts/2/order\"\n    }\n  }\n}"],"key":"application/hal+json"}],"key":"200"}],"protocols":["HTTP"],"description":"Get a cart by id","method":"get","allUriParameters":[{"name":"id","displayName":"id","typePropertyKind":"TYPE_EXPRESSION","type":"string","required":true,"description":"the cart id","key":"id"}],"absoluteUri":"http://localhost:8080/carts/{id}","relativeUri":"/carts/{id}","baseUri":"http://localhost:8080/"}],"uriParameters":[{"name":"id","displayName":"id","typePropertyKind":"TYPE_EXPRESSION","type":"string","required":true,"description":"the cart id","key":"id"}],"relativeUri":"/{id}","displayName":"/{id}","relativeUriPathSegments":["{id}"],"absoluteUri":"http://localhost:8080/carts/{id}","parentUrl":"/carts","allUriParameters":[{"name":"id","displayName":"id","typePropertyKind":"TYPE_EXPRESSION","type":"string","required":true,"description":"the cart id","key":"id"}]},{"methods":[{"responses":[{"code":"200","body":[{"name":"application/hal+json","displayName":"application/hal+json","typePropertyKind":"TYPE_EXPRESSION","type":"any","examples":["{\n  \"total\" : 49.99,\n  \"products\" : [ {\n    \"quantity\" : 1,\n    \"product\" : {\n      \"name\" : \"Fancy pants\",\n      \"price\" : 49.99\n    },\n    \"_links\" : {\n      \"product\" : {\n        \"href\" : \"http://localhost:8080/products/3\"\n      }\n    }\n  } ],\n  \"_links\" : {\n    \"self\" : {\n      \"href\" : \"http://localhost:8080/carts/3\"\n    }\n  }\n}"],"key":"application/hal+json"}],"key":"200"}],"protocols":["HTTP"],"description":"Order a cart","method":"post","allUriParameters":[{"name":"id","displayName":"id","typePropertyKind":"TYPE_EXPRESSION","type":"string","required":true,"key":"id"}],"absoluteUri":"http://localhost:8080/carts/{id}/order","relativeUri":"/carts/{id}/order","baseUri":"http://localhost:8080/"}],"uriParameters":[{"name":"id","displayName":"id","typePropertyKind":"TYPE_EXPRESSION","type":"string","required":true,"key":"id"}],"relativeUri":"/{id}/order","displayName":"/{id}/order","relativeUriPathSegments":["{id}","order"],"absoluteUri":"http://localhost:8080/carts/{id}/order","parentUrl":"/carts","allUriParameters":[{"name":"id","displayName":"id","typePropertyKind":"TYPE_EXPRESSION","type":"string","required":true,"key":"id"}]},{"methods":[{"responses":[{"code":"200","body":[{"name":"application/hal+json","displayName":"application/hal+json","typePropertyKind":"TYPE_EXPRESSION","type":"any","examples":["{\n  \"total\" : 49.99,\n  \"products\" : [ {\n    \"quantity\" : 1,\n    \"product\" : {\n      \"name\" : \"Fancy pants\",\n      \"price\" : 49.99\n    },\n    \"_links\" : {\n      \"product\" : {\n        \"href\" : \"http://localhost:8080/products/1\"\n      }\n    }\n  } ],\n  \"_links\" : {\n    \"self\" : {\n      \"href\" : \"http://localhost:8080/carts/1\"\n    },\n    \"order\" : {\n      \"href\" : \"http://localhost:8080/carts/1/order\"\n    }\n  }\n}"],"key":"application/hal+json"}],"key":"200"}],"body":[{"name":"text/uri-list","displayName":"text/uri-list","typePropertyKind":"TYPE_EXPRESSION","type":"any","examples":["http://localhost/products/1"],"key":"text/uri-list"}],"protocols":["HTTP"],"description":"Add products to a cart","method":"post","allUriParameters":[{"name":"id","displayName":"id","typePropertyKind":"TYPE_EXPRESSION","type":"string","required":true,"key":"id"}],"absoluteUri":"http://localhost:8080/carts/{id}/products","relativeUri":"/carts/{id}/products","baseUri":"http://localhost:8080/"}],"uriParameters":[{"name":"id","displayName":"id","typePropertyKind":"TYPE_EXPRESSION","type":"string","required":true,"key":"id"}],"relativeUri":"/{id}/products","displayName":"/{id}/products","relativeUriPathSegments":["{id}","products"],"absoluteUri":"http://localhost:8080/carts/{id}/products","parentUrl":"/carts","allUriParameters":[{"name":"id","displayName":"id","typePropertyKind":"TYPE_EXPRESSION","type":"string","required":true,"key":"id"}]}],"relativeUriPathSegments":["carts"],"absoluteUri":"http://localhost:8080/carts","parentUrl":"","allUriParameters":[]},{"methods":[{"queryParameters":[{"name":"page","displayName":"page","typePropertyKind":"TYPE_EXPRESSION","type":"string","required":true,"description":"The page to be requested.","key":"page"},{"name":"size","displayName":"size","typePropertyKind":"TYPE_EXPRESSION","type":"string","required":true,"description":"Parameter determining the size of the requested page.","key":"size"},{"name":"sort","displayName":"sort","typePropertyKind":"TYPE_EXPRESSION","type":"string","required":true,"description":"Information about sorting items.","key":"sort"}],"responses":[{"code":"200","body":[{"name":"application/hal+json","displayName":"application/hal+json","typePropertyKind":"JSON","schemaPath":"products-get-schema-response.json","type":"{\n  \"type\" : \"object\",\n  \"properties\" : {\n    \"_embedded\" : {\n      \"type\" : \"object\",\n      \"properties\" : {\n        \"products\" : {\n          \"type\" : \"array\",\n          \"items\" : {\n            \"type\" : \"object\",\n            \"properties\" : {\n              \"_links\" : {\n                \"description\" : \"The product links.\",\n                \"type\" : \"object\"\n              },\n              \"price\" : {\n                \"description\" : \"The price of the product.\",\n                \"type\" : \"number\"\n              },\n              \"name\" : {\n                \"description\" : \"The name of the product.\",\n                \"type\" : \"string\"\n              }\n            }\n          }\n        }\n      }\n    },\n    \"_links\" : {\n      \"description\" : \"Links section\",\n      \"type\" : \"object\",\n      \"properties\" : {\n        \"next\" : {\n          \"description\" : \"Link to the next page\",\n          \"type\" : \"null\"\n        },\n        \"last\" : {\n          \"description\" : \"Link to the next page\",\n          \"type\" : \"null\"\n        },\n        \"first\" : {\n          \"description\" : \"Link to the first page\",\n          \"type\" : \"null\"\n        }\n      }\n    },\n    \"page\" : {\n      \"description\" : \"Paging information\",\n      \"type\" : \"object\",\n      \"properties\" : {\n        \"number\" : {\n          \"description\" : \"The current page number.\",\n          \"type\" : \"number\"\n        },\n        \"size\" : {\n          \"description\" : \"The size of one page.\",\n          \"type\" : \"number\"\n        },\n        \"totalPages\" : {\n          \"description\" : \"The total number of pages.\",\n          \"type\" : \"number\"\n        },\n        \"totalElements\" : {\n          \"description\" : \"The total number of elements found.\",\n          \"type\" : \"number\"\n        }\n      }\n    }\n  }\n}","examples":["{\n  \"_embedded\" : {\n    \"products\" : [ {\n      \"name\" : \"Fancy pants\",\n      \"price\" : 49.99,\n      \"_links\" : {\n        \"self\" : {\n          \"href\" : \"http://localhost:8080/products/8\"\n        },\n        \"product\" : {\n          \"href\" : \"http://localhost:8080/products/8\"\n        }\n      }\n    }, {\n      \"name\" : \"Fancy Shirt\",\n      \"price\" : 15.10,\n      \"_links\" : {\n        \"self\" : {\n          \"href\" : \"http://localhost:8080/products/9\"\n        },\n        \"product\" : {\n          \"href\" : \"http://localhost:8080/products/9\"\n        }\n      }\n    } ]\n  },\n  \"_links\" : {\n    \"first\" : {\n      \"href\" : \"http://localhost:8080/products?page=0&size=2\"\n    },\n    \"self\" : {\n      \"href\" : \"http://localhost:8080/products{&sort}\",\n      \"templated\" : true\n    },\n    \"next\" : {\n      \"href\" : \"http://localhost:8080/products?page=1&size=2\"\n    },\n    \"last\" : {\n      \"href\" : \"http://localhost:8080/products?page=1&size=2\"\n    },\n    \"profile\" : {\n      \"href\" : \"http://localhost:8080/profile/products\"\n    }\n  },\n  \"page\" : {\n    \"size\" : 2,\n    \"totalElements\" : 3,\n    \"totalPages\" : 2,\n    \"number\" : 0\n  }\n}"],"key":"application/hal+json"}],"key":"200"}],"protocols":["HTTP"],"method":"get","allUriParameters":[],"absoluteUri":"http://localhost:8080/products","relativeUri":"/products","baseUri":"http://localhost:8080/"},{"responses":[{"code":"201","key":"201"}],"body":[{"name":"application/json","displayName":"application/json","typePropertyKind":"JSON","schemaPath":"products-create-schema-request.json","type":"{\n  \"type\" : \"object\",\n  \"properties\" : {\n    \"price\" : {\n      \"description\" : \"The price of the product.\",\n      \"type\" : \"number\"\n    },\n    \"name\" : {\n      \"description\" : \"The name of the product.\",\n      \"type\" : \"string\",\n      \"minLength\" : 1\n    }\n  },\n  \"required\" : [ \"price\", \"name\" ]\n}","examples":["{\n    \"name\": \"Fancy pants\",\n    \"price\": 49.99\n}"],"key":"application/json"}],"protocols":["HTTP"],"method":"post","allUriParameters":[],"absoluteUri":"http://localhost:8080/products","relativeUri":"/products","baseUri":"http://localhost:8080/"}],"relativeUri":"/products","displayName":"/products","resources":[{"methods":[{"responses":[{"code":"200","body":[{"name":"application/json","displayName":"application/json","typePropertyKind":"TYPE_EXPRESSION","type":"any","examples":["{\n  \"name\" : \"Fancy socks\",\n  \"price\" : 49.99,\n  \"_links\" : {\n    \"self\" : {\n      \"href\" : \"http://localhost:8080/products/6\"\n    },\n    \"product\" : {\n      \"href\" : \"http://localhost:8080/products/6\"\n    }\n  }\n}","{\n  \"name\" : \"Updated name\",\n  \"price\" : 12.12,\n  \"_links\" : {\n    \"self\" : {\n      \"href\" : \"http://localhost:8080/products/4\"\n    },\n    \"product\" : {\n      \"href\" : \"http://localhost:8080/products/4\"\n    }\n  }\n}"],"key":"application/json"}],"key":"200"},{"code":"400","body":[{"name":"application/json","displayName":"application/json","typePropertyKind":"TYPE_EXPRESSION","type":"any","examples":["{\"errors\":[{\"entity\":\"Product\",\"property\":\"price\",\"invalidValue\":-12.12,\"message\":\"must be greater than 0\"}]}"],"key":"application/json"}],"key":"400"}],"body":[{"name":"application/json-patch+json","displayName":"application/json-patch+json","typePropertyKind":"JSON","schemaPath":"product-patch-json-patch-schema-request.json","type":"{\n  \"type\" : \"array\",\n  \"items\" : {\n    \"type\" : \"object\",\n    \"properties\" : {\n      \"path\" : {\n        \"description\" : \"The path of the field.\",\n        \"type\" : \"string\"\n      },\n      \"op\" : {\n        \"description\" : \"Patch operation.\",\n        \"type\" : \"string\"\n      },\n      \"value\" : {\n        \"description\" : \"The value to assign.\",\n        \"type\" : \"string\"\n      }\n    }\n  }\n}","examples":["[{\"op\":\"replace\",\"path\":\"/name\",\"value\":\"Fancy socks\"}]"],"key":"application/json-patch+json"},{"name":"application/json","displayName":"application/json","typePropertyKind":"JSON","schemaPath":"product-patch-schema-request.json","type":"{\n  \"type\" : \"object\",\n  \"properties\" : {\n    \"price\" : {\n      \"description\" : \"The price of the product.\",\n      \"type\" : \"number\"\n    },\n    \"name\" : {\n      \"description\" : \"The name of the product.\",\n      \"type\" : \"string\",\n      \"minLength\" : 1\n    }\n  },\n  \"required\" : [ \"price\", \"name\" ]\n}","examples":["{\n    \"name\": \"Updated name\",\n    \"price\": 12.12\n}","{\n    \"name\": \"Updated name\",\n    \"price\": -12.12\n}"],"key":"application/json"}],"protocols":["HTTP"],"method":"patch","allUriParameters":[{"name":"id","displayName":"id","typePropertyKind":"TYPE_EXPRESSION","type":"string","required":true,"key":"id"}],"absoluteUri":"http://localhost:8080/products/{id}","relativeUri":"/products/{id}","baseUri":"http://localhost:8080/"},{"responses":[{"code":"200","body":[{"name":"application/hal+json","displayName":"application/hal+json","typePropertyKind":"JSON","schemaPath":"product-get-schema-response.json","type":"{\n  \"type\" : \"object\",\n  \"properties\" : {\n    \"_links\" : {\n      \"description\" : \"Links section\",\n      \"type\" : \"object\"\n    },\n    \"price\" : {\n      \"description\" : \"The price of the product.\",\n      \"type\" : \"number\"\n    },\n    \"name\" : {\n      \"description\" : \"The name of the product.\",\n      \"type\" : \"string\",\n      \"minLength\" : 1\n    }\n  },\n  \"required\" : [ \"price\", \"name\" ]\n}","examples":["{\n  \"name\" : \"Fancy pants\",\n  \"price\" : 49.99,\n  \"_links\" : {\n    \"self\" : {\n      \"href\" : \"http://localhost:8080/products/7\"\n    },\n    \"product\" : {\n      \"href\" : \"http://localhost:8080/products/7\"\n    }\n  }\n}"],"key":"application/hal+json"}],"key":"200"}],"protocols":["HTTP"],"method":"get","allUriParameters":[{"name":"id","displayName":"id","typePropertyKind":"TYPE_EXPRESSION","type":"string","required":true,"key":"id"}],"absoluteUri":"http://localhost:8080/products/{id}","relativeUri":"/products/{id}","baseUri":"http://localhost:8080/"}],"uriParameters":[{"name":"id","displayName":"id","typePropertyKind":"TYPE_EXPRESSION","type":"string","required":true,"key":"id"}],"relativeUri":"/{id}","displayName":"/{id}","relativeUriPathSegments":["{id}"],"absoluteUri":"http://localhost:8080/products/{id}","parentUrl":"/products","allUriParameters":[{"name":"id","displayName":"id","typePropertyKind":"TYPE_EXPRESSION","type":"string","required":true,"key":"id"}]}],"relativeUriPathSegments":["products"],"absoluteUri":"http://localhost:8080/products","parentUrl":"","allUriParameters":[]}],"namespace":"Api"}